{
    "wallpaper": "/home/hikari/.config/wpg/wallpapers/wal.jpg",
    "alpha": "100",

    "special": {
        "background": "#55d4ff",
        "foreground": "#f9ffff",
        "cursor": "#f9ffff"
    },
    "colors": {
        "color0": "#55d4ff",
        "color1": "#cbe2ff",
        "color2": "#95e4ff",
        "color3": "#80efff",
        "color4": "#6effff",
        "color5": "#aaecff",
        "color6": "#acffff",
        "color7": "#f9ffff",
        "color8": "#eaffff",
        "color9": "#cbe2ff",
        "color10": "#95e4ff",
        "color11": "#80efff",
        "color12": "#6effff",
        "color13": "#aaecff",
        "color14": "#acffff",
        "color15": "#f9ffff"
    }
}
